{
    "0-120 mph":24,
    "Performance Class":"6",
    "Drivetrain":"RWD",
    "100-200 km/h":20.1,
    "Body Style":"Wagon",
    "Braking G":1.116,
    "0-200 km/h":26.3,
    "Value":44050,
    "0-100 mph":15.2,
    "TorquePeakRPM":"2400 - 4050",
    "0-100 km/h":6.2,
    "Description":"Touring model with 6-cylinder engine and eco package",
    "Configuration":"856t eco (A)",
    "Top Speed":70.1522,
    "Transmission":"Automatic",
    "60-100 mph":9.3,
    "0-60 mph":5.9,
    "Config Type":"Factory",
    "100-0 km/h":35.2,
    "PowerPeakRPM":6450,
    "Power":247.378,
    "Torque":318.893,
    "default_color":"Sky Blue",
    "Off-Road Score":27,
    "Weight/Power":6.61943,
    "60-0 mph":107.3,
    "60-120 mph":18,
    "Weight":1635
    }